[gd_resource type="DynamicFont" load_steps=2 format=2]

[sub_resource type="DynamicFontData" id=1]
antialiased = false
font_path = "res://Font/m5x7.ttf"

[resource]
size = 17
outline_size = 1
outline_color = Color( 0, 0, 0, 1 )
use_mipmaps = true
font_data = SubResource( 1 )
